…
Here is an example of the `expected_statistics` leaderboard for pitchers who faced at least 250 batters in 2018:

```r
require(baseballr)
require(dplyr)
> payload <- scrape_savant_leaderboards(leaderboard = "expected_statistics", 
+                            year = 2018, 
+                            player_type = "pitcher", 
+                            min_pa = 250)

> payload %>%
+   arrange(est_woba) %>% 
+   select(year:player_id, pa, woba:est_woba_minus_woba_diff)
# A tibble: 274 x 8
    year last_name first_name player_id    pa  woba est_woba est_woba_minus_woba_diff
   <int> <chr>     <chr>          <int> <int> <dbl>    <dbl>                    <dbl>
 1  2018 Diaz      Edwin         621242   280 0.214    0.212                    0.002
 2  2018 Hader     Josh          623352   306 0.219    0.229                   -0.01 
 3  2018 Treinen   Blake         595014   315 0.187    0.23                    -0.043
 4  2018 Ottavino  Adam          493603   309 0.231    0.23                     0.001
 5  2018 Sale      Chris         519242   617 0.237    0.232                    0.005
 6  2018 Verlander Justin        434378   833 0.26     0.236                    0.024
 7  2018 Betances  Dellin        476454   272 0.259    0.236                    0.023
 8  2018 Pressly   Ryan          519151   292 0.267    0.241                    0.026
 9  2018 deGrom    Jacob         594798   835 0.23     0.243                   -0.013
10  2018 Scherzer  Max           453286   866 0.252    0.246                    0.006
# ... with 264 more rows
```
You can also look at pop times for catchers with a minimum of 20 throws to second base:

```r
> payload <- scrape_savant_leaderboards(leaderboard = "pop_time", 
+                                       year = 2018,
+                                       min2b = 20)
> payload %>%
+   arrange(pop_2b_sb) %>%
+   select(year, catcher, exchange_2b_3b_sba, pop_2b_sba, pop_2b_cs, pop_2b_sb)
# A tibble: 36 x 6
    year catcher           exchange_2b_3b_sba pop_2b_sba pop_2b_cs pop_2b_sb
   <dbl> <chr>                          <dbl>      <dbl>     <dbl>     <dbl>
 1  2018 J.T. Realmuto                   0.69       1.9       1.88      1.9 
 2  2018 Yan Gomes                       0.66       1.93      1.96      1.92
 3  2018 Austin Hedges                   0.7        1.94      1.92      1.95
 4  2018 Manny Pina                      0.67       1.94      1.93      1.95
 5  2018 Jorge Alfaro                    0.73       1.94      1.9       1.96
 6  2018 Willson Contreras               0.74       1.96      1.96      1.96
 7  2018 Salvador Perez                  0.68       1.98      1.98      1.96
 8  2018 Martin Maldonado                0.77       1.97      1.98      1.97
 9  2018 Luke Maile                      0.71       1.99      2.02      1.97
10  2018 Sandy Leon                      0.69       1.97      1.95      1.98
# ... with 26 more rows
```
…
